<?xml version="1.0" encoding="UTF-8"?>
<svg width="293px" height="293px" viewBox="0 0 293 293" version="1.1" xmlns="http://www.w3.org/2000/svg" xmlns:xlink="http://www.w3.org/1999/xlink">
    <!-- Generator: Sketch 54.1 (76490) - https://sketchapp.com -->
    <desc>Created with Sketch.</desc>
    <g id="Page-1" stroke="none" stroke-width="1" fill="none" fill-rule="evenodd">
        <g id="Group-3" transform="translate(10.000000, 10.000000)" stroke="#0077FF">
            <circle id="Oval-17" stroke-width="19" opacity="0.3" cx="136.5" cy="136.5" r="136.5"></circle>
            <path d="M74,258.052463 L74,258.052463 C92.67678,267.608349 113.844393,273 136.273385,273 C211.785409,273 273,211.886868 273,136.5 C273,61.1131317 211.785409,0 136.273385,0" id="Oval-17" stroke-width="18" stroke-linecap="round"></path>
        </g>
    </g>
</svg>