<?xml version="1.0" encoding="UTF-8"?>
<svg width="23px" height="20px" viewBox="0 0 23 20" version="1.1" xmlns="http://www.w3.org/2000/svg" xmlns:xlink="http://www.w3.org/1999/xlink">
    <!-- Generator: Sketch 54.1 (76490) - https://sketchapp.com -->
    <title>icon</title>
    <desc>Created with Sketch.</desc>
    <g id="Page-1" stroke="none" stroke-width="1" fill="none" fill-rule="evenodd">
        <g id="Desktop-HD-Copy" transform="translate(-25.000000, -173.000000)" fill="#FFFFFF">
            <g id="icon" transform="translate(25.000000, 172.000000)">
                <path d="M22.0889795,8.39281579 C21.4816849,6.89789211 20.6643973,5.61037105 19.637589,4.52958947 C18.6107808,3.44897368 17.3872123,2.58902368 15.9665685,1.94973947 C14.5460822,1.31045526 13.0573836,0.990647368 11.5,0.990647368 C9.94261644,0.990647368 8.45376027,1.31045526 7.03343151,1.94973947 C5.61310274,2.58918947 4.38953425,3.44897368 3.36272603,4.52958947 C2.33576027,5.61037105 1.51878767,6.89789211 0.911178082,8.39281579 C0.303726027,9.88773947 0,11.4546158 0,13.0934447 C0,15.4526289 0.60319863,17.6274553 1.80975342,19.6177579 C1.97217123,19.8788763 2.20327397,20.0093526 2.50274658,20.0093526 L20.4972534,20.0093526 C20.7965685,20.0093526 21.0276712,19.8788763 21.190089,19.6177579 C22.3968014,17.6186684 23,15.4438421 23,13.0934447 C23,11.4546158 22.696274,9.88773947 22.0889795,8.39281579 L22.0889795,8.39281579 Z M10.3383425,3.22631842 C10.6593973,2.88860526 11.0464589,2.71966579 11.5,2.71966579 C11.9535411,2.71966579 12.3406027,2.88860526 12.6615,3.22631842 C12.9823973,3.56386579 13.1430822,3.97137632 13.1430822,4.44868421 C13.1430822,4.92599211 12.9823973,5.33333684 12.6615,5.67105 C12.3406027,6.00876316 11.9535411,6.17770263 11.5,6.17770263 C11.0464589,6.17770263 10.6592397,6.00876316 10.3383425,5.67105 C10.0176027,5.33333684 9.85707534,4.92599211 9.85707534,4.44868421 C9.85707534,3.97137632 10.0174452,3.56386579 10.3383425,3.22631842 L10.3383425,3.22631842 Z M4.44734932,14.3158105 C4.12645205,14.6535237 3.73923288,14.8226289 3.28569178,14.8226289 C2.83230822,14.8226289 2.44508904,14.6535237 2.12419178,14.3158105 C1.80329452,13.9784289 1.64292466,13.5707526 1.64292466,13.0934447 C1.64292466,12.6161368 1.80329452,12.2087921 2.12419178,11.8710789 C2.44508904,11.5333658 2.83230822,11.3644263 3.28569178,11.3644263 C3.73923288,11.3644263 4.12660959,11.5333658 4.44734932,11.8710789 C4.76808904,12.2087921 4.92861644,12.6161368 4.92861644,13.0934447 C4.92861644,13.5707526 4.76808904,13.9780974 4.44734932,14.3158105 L4.44734932,14.3158105 Z M6.91165753,8.26449474 C6.59060274,8.60220789 6.2035411,8.77114737 5.75,8.77114737 C5.2964589,8.77114737 4.90923973,8.60204211 4.58834247,8.26449474 C4.26760274,7.92694737 4.10707534,7.51943684 4.10707534,7.04212895 C4.10707534,6.56482105 4.26744521,6.15747632 4.58834247,5.81976316 C4.90939726,5.48205 5.2964589,5.31311053 5.75,5.31311053 C6.2035411,5.31311053 6.59076027,5.48205 6.91165753,5.81976316 C7.23239726,6.15747632 7.39292466,6.56482105 7.39292466,7.04212895 C7.39292466,7.51927105 7.23239726,7.92678158 6.91165753,8.26449474 L6.91165753,8.26449474 Z M14.1823356,8.37938684 L12.8859863,13.5390868 C13.3140068,13.8453 13.6219863,14.2548 13.8103973,14.7684158 C13.9984932,15.2817 14.0243288,15.8084132 13.8874315,16.3487211 C13.7163493,17.0420526 13.3354315,17.5689316 12.7449932,17.9290263 C12.1545548,18.2892868 11.5299315,18.3794763 10.8709658,18.1992632 C10.2121575,18.0192158 9.7115137,17.6185026 9.36934932,16.9971237 C9.02718493,16.3755789 8.94164384,15.7183895 9.11272603,15.0248921 C9.24962329,14.48475 9.51916438,14.0412632 9.92134932,13.6947632 C10.3233767,13.3479316 10.7811712,13.1521342 11.2945753,13.1070395 L12.5909247,7.94717368 C12.6507877,7.71307895 12.7790205,7.53502105 12.9757808,7.41349737 C13.1726986,7.29213947 13.3779658,7.26279474 13.5918973,7.32579474 C13.8059863,7.38896053 13.9706096,7.52159211 14.0860822,7.72418684 C14.2017123,7.92694737 14.2338493,8.14529211 14.1823356,8.37938684 L14.1823356,8.37938684 Z M16.0885,8.26449474 C15.7676027,7.92694737 15.6069178,7.51943684 15.6069178,7.04212895 C15.6069178,6.56482105 15.7676027,6.15747632 16.0885,5.81976316 C16.4093973,5.48205 16.7964589,5.31311053 17.25,5.31311053 C17.7035411,5.31311053 18.0906027,5.48205 18.4115,5.81976316 C18.7323973,6.15747632 18.8930822,6.56482105 18.8930822,7.04212895 C18.8930822,7.51927105 18.7323973,7.92678158 18.4115,8.26449474 C18.0906027,8.60220789 17.7035411,8.77114737 17.25,8.77114737 C16.7964589,8.77114737 16.4093973,8.60220789 16.0885,8.26449474 L16.0885,8.26449474 Z M20.8758082,14.3158105 C20.554911,14.6535237 20.1678493,14.8226289 19.7143082,14.8226289 C19.2607671,14.8226289 18.8737055,14.6535237 18.5528082,14.3158105 C18.231911,13.9784289 18.0713836,13.5707526 18.0713836,13.0934447 C18.0713836,12.6161368 18.231911,12.2087921 18.5528082,11.8710789 C18.8737055,11.5333658 19.2607671,11.3644263 19.7143082,11.3644263 C20.1678493,11.3644263 20.554911,11.5333658 20.8758082,11.8710789 C21.1965479,12.2087921 21.3570753,12.6161368 21.3570753,13.0934447 C21.3570753,13.5707526 21.1967055,13.9780974 20.8758082,14.3158105 L20.8758082,14.3158105 Z" id="Shape"></path>
            </g>
        </g>
    </g>
</svg>